^C:\USERS\TATIA\SOURCE\REPOS\PROJECT1\PROJECT1\DEBUG\SOURCE.OBJ
C:\USERS\TATIA\SOURCE\REPOS\PROJECT1\DEBUG\PROJECT1.EXE
C:\USERS\TATIA\SOURCE\REPOS\PROJECT1\PROJECT1\DEBUG\PROJECT1.ILK
C:\USERS\TATIA\SOURCE\REPOS\PROJECT1\DEBUG\PROJECT1.PDB
